<svg xmlns="http://www.w3.org/2000/svg" width="140" height="140" viewBox="0 0 140 140">
  <g id="Сгруппировать_86" data-name="Сгруппировать 86" transform="translate(-137 -210)">
    <circle id="Эллипс_3" data-name="Эллипс 3" cx="70" cy="70" r="70" transform="translate(137 210)" fill="#fbc436"/>
    <g id="Сгруппировать_77" data-name="Сгруппировать 77" transform="translate(158 231)">
      <g id="Слой_2" data-name="Слой 2" transform="translate(22.351 12.035)">
        <g id="Слой_1" data-name="Слой 1" transform="translate(0 0)">
          <path id="Контур_27" data-name="Контур 27" d="M52.68,128.609c.442.5.182,1.034.025,1.476-.573,1.6-1.207,3.182-1.847,4.759a9.005,9.005,0,0,1-.958,2.009c-.927,1.266-1.944,2.472-2.976,3.661a28.5,28.5,0,0,1-2.293,2.34,16.3,16.3,0,0,1-1.755,1.286,16.227,16.227,0,0,1-1.687,1.1,36.284,36.284,0,0,1-3.525,1.691c-1.368.53-2.791.916-4.2,1.344a8.938,8.938,0,0,1-1.184.235,26.853,26.853,0,0,1-6.326.224,19.892,19.892,0,0,1-3.27-.643,28.692,28.692,0,0,1-4.053-1.195,19.434,19.434,0,0,1-4.885-2.65c-.762-.618-1.606-1.145-2.352-1.783A16.53,16.53,0,0,1,9.85,140.84a24.126,24.126,0,0,1-1.786-2.055,21.021,21.021,0,0,1-2.077-3.256,41.472,41.472,0,0,1-2.265-5.68,18.511,18.511,0,0,1-.793-6.336c.107-1.881.309-3.76.555-5.626a9.735,9.735,0,0,1,.692-2.37,52.249,52.249,0,0,1,2.134-4.8,21.325,21.325,0,0,1,4.084-5.3,23.56,23.56,0,0,1,2.437-2.231,28.512,28.512,0,0,1,3.214-1.907,20.614,20.614,0,0,1,2.191-.977c.814-.325,1.638-.629,2.472-.89,1.151-.36,2.318-.681,3.477-1,.586-.155,1.184-.263,1.776-.4q1.314-.3,2.627-.618c.037-.009.073-.028.11-.034,1.666-.258,3.332-.508,5-.773.714-.114,1.42-.267,2.134-.389.535-.09.971-.2,2.743-.479.927-.136,1.854-.294,2.782-.481.983-.2,1.956-.453,2.936-.663.518-.113,1.057-.134,1.561-.284,1.082-.309,2.136-.683,3.2-1.042a6.409,6.409,0,0,0,1.558-.592c1.11-.746,2.5-1.066,3.344-2.222a16.043,16.043,0,0,1,1.113-1.293.44.44,0,0,1,.338-.122c.076.011.176.155.187.252a35.8,35.8,0,0,1,.556,6.645,10.889,10.889,0,0,1-.678,3.554,7.744,7.744,0,0,1-3.573,4.132c-.9.464-1.806.927-2.743,1.309a15.476,15.476,0,0,1-1.953.532c-.782.2-1.559.426-2.347.6-.635.142-1.281.232-1.925.337q-2.731.445-5.463.884c-.5.079-1.356.321-2.452.477-1.114.155-2.23.309-3.339.5-.685.119-1.357.309-2.035.476-.618.145-1.25.269-1.867.434-.919.246-1.845.474-2.74.793-1.335.474-1.975.625-3.281,1.172a9.242,9.242,0,0,0-1.669,1.1c-.8.739-1.595,1.477-2.344,2.261a14.135,14.135,0,0,0-3.256,5.937,10.641,10.641,0,0,0-.2,3.388,19.124,19.124,0,0,0,.2,2.622c.3.821.549,1.755,1.07,2.935a11.573,11.573,0,0,0,2.257,3.2,17.194,17.194,0,0,0,2.485,2.088A11.637,11.637,0,0,0,22.44,136a18.441,18.441,0,0,0,2.826.944,19.68,19.68,0,0,0,2.353.417c.417.057.845.026,1.269.046a22.844,22.844,0,0,0,5.582-.487,23.78,23.78,0,0,0,2.618-.791c1.015-.329,2.046-.629,3.032-1.034,1.347-.553,2.669-1.171,3.982-1.8,1.267-.609,2.533-1.236,3.761-1.913,1.252-.7,2.455-1.479,3.689-2.211C51.89,128.969,52.256,128.816,52.68,128.609Z" transform="translate(-2.452 -75.265)" fill="#fff"/>
          <path id="Контур_28" data-name="Контур 28" d="M-.033,25.709a9.275,9.275,0,0,1,1.426-4.945,13.385,13.385,0,0,1,2.972-3.443A18.839,18.839,0,0,1,10.3,13.9c1.344-.464,2.749-.773,4.134-1.119,1.055-.269,2.119-.5,3.18-.748.559-.13,1.119-.257,1.68-.374q1.822-.379,3.642-.745c1.147-.232,2.3-.431,3.44-.689,1.3-.294,2.595-.629,3.886-.963,1.717-.443,3.44-.872,5.143-1.369,1.425-.416,2.851-.85,4.226-1.4,1.929-.773,3.845-1.607,5.7-2.545A10.917,10.917,0,0,0,49.276.784a2.628,2.628,0,0,0,.181-.216c.447-.765.555-.757,1.049.015a18.4,18.4,0,0,1,2.343,4.67,9.874,9.874,0,0,1,.287,4.056,7.543,7.543,0,0,1-3.227,5.138A7.378,7.378,0,0,1,48.3,15.5c-1.082.448-2.146.992-3.261,1.357-1.317.431-2.675.734-4.018,1.054-1.38.329-2.766.64-4.16.9-1.091.207-2.2.32-3.295.491-.986.155-1.969.329-2.952.5-1.188.207-2.377.411-3.554.63-1.346.249-2.695.484-4.03.78s-2.7.6-4.018,1.017a44.771,44.771,0,0,0-5.107,1.827,23.2,23.2,0,0,0-4.158,2.472,26.929,26.929,0,0,0-3.486,3.2A32.047,32.047,0,0,0,4.1,32.543a11.526,11.526,0,0,0-.868,1.19c-.27.474-.481.277-.661-.017a26.358,26.358,0,0,1-1.33-2.282A11.687,11.687,0,0,1-.033,25.709Z" transform="translate(0.039 0.001)" fill="#ed1a51"/>
        </g>
      </g>
      <g id="Эллипс_11" data-name="Эллипс 11" fill="none" stroke="#fff" stroke-width="3">
        <circle cx="49" cy="49" r="49" stroke="none"/>
        <circle cx="49" cy="49" r="47.5" fill="none"/>
      </g>
    </g>
  </g>
</svg>
